Documentation for Kernel Assignment 2
=====================================

+------------------------+
| BUILD & RUN (Required) |
+------------------------+

Replace "(Comments?)" with the command the grader should use to compile your kernel (should simply be "make").
    To compile the kernel, the grader should type: make
If you have additional instruction for the grader, replace "(Comments?)" with your instruction (or with the word "none" if you don't have additional instructions):
    Additional instructions for building/running this assignment: none

+-------------------------+
| SELF-GRADING (Required) |
+-------------------------+

Replace each "(Comments?)" with appropriate information and each stand-alone "?"
with a numeric value:

(A.1) In fs/vnode.c:
    (a) In special_file_read(): 3 out of 3 pts
    (b) In special_file_write(): 3 out of 3 pts

(A.2) In fs/namev.c:
    (a) In lookup(): 6 out of 6 pts
    (b) In dir_namev(): 10 out of 10 pts
    (c) In open_namev(): 2 out of 2 pts

(A.3) In fs/vfs_syscall.c:
    (a) In do_write(): 4 out of 4 pts
    (b) In do_mknod(): 2 out of 2 pts
    (c) In do_mkdir(): 2 out of 2 pts
    (d) In do_rmdir(): 2 out of 2 pts
    (e) In do_unlink(): 2 out of 2 pts
    (f) In do_stat(): 2 out of 2 pts

(B) vfstest: 42 out of 42 pts
    What is your kshell command to invoke vfstest_main(): vfstest

(C.1) faber_fs_thread_test (6 out of 6 pts)
    What is your kshell command to invoke faber_fs_thread_test(): (Comments?)
(C.2) faber_directory_test (4 out of 4 pts)
    What is your kshell command to invoke faber_directory_test(): (Comments?)

(D) Self-checks: (10 out of 10 pts)
    Please provide details, add subsections and/or items as needed; or, say that "none is needed".
    Details: We have 1 test to run: Our kshell command to invoke do_stat(): ls
    Our kshell command to invoke do_link() : link dev/null test_null
    Our kshell command to invoke do_unlink(): (1)link dev/null test_null (2)rm test_null
    Our kshell command to invoke do_chdir():

Missing/incomplete required section(s) in README file (vfs-README.txt): (-? pts)
Submitted binary file : (-? pts)
Submitted extra (unmodified) file : (-? pts)
Wrong file location in submission : (-? pts)
Extra printout when running with DBG=error,test in Config.mk : (-? pts)
Incorrectly formatted or mis-labeled "conforming dbg() calls" : (-? pts)
Cannot compile : (-? pts)
Compiler warnings : (-? pts)
"make clean" : (-? pts)
Kernel panic : (-? pts)
Kernel freezes : (-? pts)
Cannot halt kernel cleanly : (-? pts)

+--------------------------------------+
| CONTRIBUTION FROM MEMBERS (Required) |
+--------------------------------------+

1)  Names and USC e-mail addresses of team members: ?
2)  Is the following statement correct about your submission (please replace
        "(Comments?)" with either "yes" or "no", and if the answer is "no",
        please list percentages for each team member)?  "Each team member
        contributed equally in this assignment": (Comments?)

+---------------------------------+
| BUGS / TESTS TO SKIP (Required) |
+---------------------------------+

Are there are any tests mentioned in the grading guidelines test suite that you
know that it's not working and you don't want the grader to run it at all so you
won't get extra deductions, please replace "(Comments?)" below with your list.
(Of course, if the grader won't run such tests in the plus points section, you
will not get plus points for them; if the garder won't run such tests in the
minus points section, you will lose all the points there.)  If there's nothing
the grader should skip, please replace "(Comments?)" with "none".

Please skip the following tests: (Comments?)

+--------------------------------------------------------------------------------------------+
| ADDITIONAL INFORMATION FOR GRADER (Optional, but the grader should read what you add here) |
+--------------------------------------------------------------------------------------------+

+-----------------------------------------------+
| OTHER (Optional) - Not considered for grading |
+-----------------------------------------------+

Comments on design decisions: (Comments?)
